ÜNİTE,KONU,KAZANIMLAR
1,Freundschaft /In der Klasse / Gesprӓch auf dem Schulhof,"Personalpronomen im Dativ
Gefӓllt  dir …?
Verben mit Dativ
Mir gefӓllt …"
2,Haustiere / Familie,Possesivpronomen im Akkusativ und Dativ
3,Leserbrief für eine Jugendzeitschrift (über Freundschaft oder Schule),"ebenNsӓtze mit “dass”
Ich glaube, dass… Sie sagt, dass …"
4,Stadtplan / Orientierung in der Stadt,"Prӓpositionen im Akkusativ und Dativ
Wo…? / Wohin …?
Zeitangaben
am Montag / um 7 Uhr / im Januar"
5,Aktivitӓten / Personen,"Adjektivsteigerung (Positiv
/Komparativ / Superlativ)
klein-kleiner, kleiner als … so  klein  wie …"
6,Zimmerbeschreibung,"Wechselprӓpositionen
Auf den Tisch stellen, Auf dem Tisch stehen…"
7,Tagesablauf / Postkarten aus den Ferien,"Perfekt von regelmӓβigen, unregelmӓβigen und trennbaren Verben
Erzӓhlen mit Zeitangaben / Ablӓufe beschreiben"
8,Mode und Farben,Adjektivdeklination mit dem bestimmten und unbestimmten Artikel
9,Berufe / Zukunftsplӓne,“möchten” und “werden”
10,Verabredungen / Interviews,Modalverben im Prӓteritum
11,Einkaufen / Essen und Trinken,Wünsche / Höflichkeit: hӓtte
12,Rezepte / Prospekte,Verben mit Imperativ
13,Körper und Gesundheit/Sport,Nebensӓtze mit “weil” / Gegensӓtze mit “aber” / Nebensӓtze mit “weil”/ Gegensӓtze mit “aber” / Indirekte Fragen mit Fragepronomen “was” “wer”
14,Feste und Feiern,Reflexive Verben / Nebensӓtze mit “wenn” 
15,Kreatives Schreiben,Schreibaktivitӓten nach Wunsch