ÜNİTE,KONU
1,Les superlatifs simples
2,"Les connecteurs temporels et énumératifs “ alors, d‟abord, après, puis,et, et puis, enfin, voilà, pour finir, ensuite etc.“"
3,"Les adverbes de fréquence (souvent, toujours, quelquefois, jamais..)"
4,"L'expression de la cause, de la conséquence ( À cause de…, avec, parce que, alors donc, et, c‟est pour cela/ça que )"
5,"Le pronom relatif (qui, que, où)"
6,Le présent progressif (être en train de + verbe infinitif)
7,L'accord du participe passé avec le COD
8,"Le futur simple ( les projets d‟avenir, la prévision)"
9,"La phrase exclamative (quel, que, comme …!)"
10,La phrase interro-négative et les réponses si/non – moi aussi/ moi non plus
11,L'imparfait (reconnaitre certaines formes et valeurs)
12,"Le discours indirect (phrases affirmatives, interrogatives, négatives, impératif au présent )"
13,"Le discours indirect (phrases affirmatives, interrogatives, négatives, impératif au présent )"
14,Les comparatifs de quantité (plus de / moins de / autant de... que)
15,Les comparatifs de quantité (plus de / moins de / autant de... que)
16,L'expression de la condition ( si + présent → présent )
17,"Les pronoms interrogatifs (lequel, laquel, lesquels, lesquelles)"
18,"Les pronoms interrogatifs (lequel, laquel, lesquels, lesquelles)"
19,Les pronoms démonstratifs (celui / celle / ceux / celles)
20,Le conditionnel présent:
21,"Les adjectifs indéfinis (tout, tous, toute, toutes, quelques, plusieurs, chaque )"
22,"Les adjectifs indéfinis (tout, tous, toute, toutes, quelques, plusieurs, chaque )"